<?xml version='1.0' encoding='UTF-8'?>
<!-- Created with Inkscape (http://www.inkscape.org/) and export_objects.py -->
<svg xmlns:cc="http://creativecommons.org/ns#" xmlns:dc="http://purl.org/dc/elements/1.1/" xmlns:inkscape="http://www.inkscape.org/namespaces/inkscape" xmlns:rdf="http://www.w3.org/1999/02/22-rdf-syntax-ns#" xmlns:sodipodi="http://sodipodi.sourceforge.net/DTD/sodipodi-0.dtd" xmlns:xlink="http://www.w3.org/1999/xlink" xmlns="http://www.w3.org/2000/svg" version="1.1" id="svg1" width="16" height="16" viewBox="0 0 16 16">
<sodipodi:namedview 
    objecttolerance="10" 
    gridtolerance="10" 
    guidetolerance="10" 
    id="namedview" 
    showgrid="true" 
    inkscape:zoom="27.166187"
    inkscape:cx="7.4837792"
    inkscape:cy="8.9906751"
    inkscape:window-x="0" 
    inkscape:window-y="27"> 
    <inkscape:grid type="xygrid" id="grid"/>
  </sodipodi:namedview>
  <metadata
     id="metadata1906">
    <rdf:RDF>
      <cc:Work
         rdf:about="">
        <dc:format>image/svg+xml</dc:format>
        <dc:type
           rdf:resource="http://purl.org/dc/dcmitype/StillImage" />
        <cc:license
           rdf:resource="http://creativecommons.org/publicdomain/zero/1.0/" />
        <dc:title>fe Editor new Icons proposal</dc:title>
        <dc:date>13 Nov 2018</dc:date>
        <dc:creator>
          <cc:Agent>
            <dc:title>Ramón Miranda</dc:title>
          </cc:Agent>
        </dc:creator>
        <dc:rights>
          <cc:Agent>
            <dc:title>see the license tab</dc:title>
          </cc:Agent>
        </dc:rights>
        <dc:subject>
          <rdf:Bag>
            <rdf:li>icon ui</rdf:li>
          </rdf:Bag>
        </dc:subject>
        <dc:description>This is a little contribution with Inkscape Project
Ramon Miranda  www.ramonmiranda.com (design and SVG file)
Jabiertxo (SVG stuff to integrate them in UI)</dc:description>
        <dc:publisher>
          <cc:Agent>
            <dc:title></dc:title>
          </cc:Agent>
        </dc:publisher>
        <dc:identifier></dc:identifier>
        <dc:source />
        <dc:relation />
        <dc:language>-</dc:language>
        <dc:coverage />
        <dc:contributor>
          <cc:Agent>
            <dc:title>Ramon Miranda
Jabier Arraiza</dc:title>
          </cc:Agent>
        </dc:contributor>
      </cc:Work>
      <cc:License
         rdf:about="http://creativecommons.org/publicdomain/zero/1.0/">
        <cc:permits
           rdf:resource="http://creativecommons.org/ns#Reproduction" />
        <cc:permits
           rdf:resource="http://creativecommons.org/ns#Distribution" />
        <cc:permits
           rdf:resource="http://creativecommons.org/ns#DerivativeWorks" />
      </cc:License>
    </rdf:RDF>
  </metadata>
  <g inkscape:groupmode="layer"
     id="layer"
     inkscape:label="feColorMatrix">
    <path 
       id="rect22048" 
       d="M 0,0 H 16 V 16 H 0 Z" 
       style="opacity:0;fill:none" />
    <path
       style="opacity:0.40;fill:#000000"
       d="M 9.2320921,7.938864 V 7.6181592 7.2974552 l -0.3266131,-0.00591 -0.3266189,-0.00591 -0.00589,-0.3266164 -0.00589,-0.326617 h 0.332526 0.3325267 V 6.3009817 5.9695683 l -0.3266069,-0.00591 -0.3266191,-0.00591 -0.00588,-0.3266164 -0.00588,-0.3266164 h 0.332526 0.3325266 l 6.689e-4,-0.080316 6.691e-4,-0.080315 0.062414,0.074961 0.062414,0.074962 -0.052279,0.00678 -0.052285,0.00678 V 5.6389629 5.970559 l 0.3266183,-0.0064 0.3266121,-0.0064 v 0.3319601 0.3319707 l 0.3266192,0.00591 0.326619,0.00591 V 6.4175136 c 0,-0.1669867 -0.0061,-0.2123943 -0.02678,-0.2001203 -0.01473,0.00874 0.01187,-0.026841 0.05911,-0.079052 0.04724,-0.052211 0.108184,-0.1238416 0.135451,-0.1591807 0.02726,-0.035339 0.04347,-0.052205 0.036,-0.03748 -0.01044,0.020622 0.04086,0.026772 0.223299,0.026772 h 0.236858 V 5.6773403 c 0,-0.3996171 -0.01398,-0.3853382 0.369446,-0.3775796 l 0.294496,0.00596 V 4.9731456 c 0,-0.1829167 -0.0077,-0.3325754 -0.01714,-0.3325754 -0.0094,0 -0.03048,0.012047 -0.0468,0.026772 -0.01632,0.014724 0.01161,-0.021417 0.06205,-0.080315 l 0.0917,-0.1070876 -0.655306,-0.00567 -0.655299,-0.00567 -6.68e-4,-0.3905595 C 10.666005,3.6125767 10.639748,3.4610516 10.514432,3.2068386 10.391485,2.9574281 10.187017,2.7529615 9.9376097,2.6300115 9.6777457,2.5019086 9.535418,2.4782114 9.023256,2.4777719 L 8.58955,2.4773705 V 1.9098077 1.3422444 h 3.298294 3.298287 v 1.9811168 1.981117 h -0.33197 -0.331972 v 0.3319707 0.3319714 h 0.331972 0.33197 V 6.300391 6.6323618 h -0.33197 -0.331972 v 0.3212627 0.321262 h 0.332085 0.332084 l -0.02168,0.6734393 c -1.766094,0.024943 -5.9325819,-0.00946 -5.9325819,-0.00946 z M 10.559982,7.6176014 V 7.2963393 H 10.228003 9.8960331 V 7.6176014 7.938864 h 0.3319699 0.331979 z m 1.327882,0 V 7.2963393 H 11.555893 11.223924 V 7.6176014 7.938864 h 0.331969 0.331971 z m 1.306463,0 V 7.2963393 h -0.32126 -0.321261 V 7.6176014 7.938864 h 0.321261 0.32126 z m 1.327883,0 V 7.2963393 h -0.331971 -0.33197 V 7.6176014 7.938864 h 0.33197 0.331971 z M 9.896034,6.9536599 V 6.6323979 H 9.5747729 9.2535122 v 0.321262 0.321262 H 9.5747729 9.896034 Z m 1.32789,5.351e-4 V 6.6334902 l 0.326611,-0.00591 0.326619,-0.00591 0.0059,-0.3266164 0.0059,-0.3266164 h 0.320706 0.320704 V 5.636459 5.3044882 h -0.32126 -0.321261 V 5.636459 5.9684303 h -0.332 -0.331971 v 0.3319708 0.3319707 h -0.33197 -0.331971 v 0.3212627 0.321262 h 0.331971 0.33197 z m 1.306462,-5.351e-4 v -0.321262 h -0.321261 -0.321261 v 0.321262 0.321262 h 0.321261 0.321261 z m 1.327883,0 v -0.321262 h -0.321261 -0.321261 v 0.321262 0.321262 h 0.321261 0.321261 z M 13.194327,6.3004265 V 5.9684557 h -0.32126 -0.321261 v 0.3319708 0.3319714 h 0.321261 0.32126 z m 1.327883,0 V 5.9684557 h -0.331971 -0.33197 V 5.6364851 5.3045136 h 0.33197 0.331971 V 4.9725429 4.6405722 h -0.331971 -0.33197 v 0.3319707 0.3319707 h -0.321261 -0.321261 v 0.3319715 0.3319706 h 0.321261 0.321261 v 0.3176925 c 0,0.1747313 0.0064,0.3241179 0.01428,0.3319707 0.0079,0.00785 0.157239,0.014279 0.331972,0.014279 h 0.317688 z M 13.194327,4.9725429 V 4.6405722 h -0.32126 -0.321261 v 0.3319707 0.3319707 h 0.321261 0.32126 z m -2.915508,1.4296482 c -0.02664,-0.03397 -0.02589,-0.034727 0.008,-0.00808 0.02061,0.016167 0.03748,0.033033 0.03748,0.03748 0,0.017628 -0.01759,0.00628 -0.04557,-0.029394 z M 10.171732,6.2736862 c -0.02664,-0.033969 -0.02589,-0.034727 0.008,-0.00808 0.03568,0.027979 0.04702,0.045567 0.02939,0.045567 -0.0044,0 -0.02132,-0.016866 -0.03748,-0.03748 z M 10.064645,6.1451813 c -0.02664,-0.033969 -0.02589,-0.034727 0.008,-0.00808 0.03568,0.027979 0.04702,0.045566 0.02939,0.045566 -0.0044,0 -0.02132,-0.016866 -0.03748,-0.037481 z M 9.9575571,6.0166763 c -0.026638,-0.033969 -0.025887,-0.034727 0.00805,-0.00808 0.035678,0.027979 0.047025,0.045567 0.029392,0.045567 -0.00447,0 -0.021317,-0.016867 -0.037484,-0.037481 z M 9.8504711,5.8881714 c -0.026646,-0.033969 -0.025882,-0.034727 0.00805,-0.00808 0.035678,0.027979 0.047016,0.045567 0.029392,0.045567 -0.00438,0 -0.021317,-0.016867 -0.037484,-0.037481 z M 9.7433839,5.7596664 c -0.026645,-0.033969 -0.025882,-0.034726 0.00808,-0.00808 0.020611,0.016168 0.037475,0.033034 0.037475,0.037481 0,0.017627 -0.017587,0.00628 -0.045563,-0.029394 z M 9.636297,5.6311621 c -0.026645,-0.03397 -0.025882,-0.034727 0.00808,-0.00808 0.035682,0.027979 0.047028,0.045567 0.029393,0.045567 -0.00442,0 -0.021312,-0.016867 -0.037474,-0.03748 z M 9.5292101,5.5026572 c -0.026645,-0.03397 -0.025888,-0.034727 0.00808,-0.00808 0.020617,0.016167 0.037482,0.033033 0.037482,0.03748 0,0.017627 -0.017587,0.00628 -0.045563,-0.029394 z M 9.4221232,5.3741522 c -0.026645,-0.03397 -0.025888,-0.034727 0.00808,-0.00808 0.035676,0.027979 0.047021,0.045567 0.029394,0.045567 -0.00442,0 -0.021313,-0.016867 -0.037475,-0.03748 z M 9.1008558,4.9886374 c -0.026638,-0.033969 -0.025882,-0.034727 0.00808,-0.00808 0.035676,0.027979 0.047021,0.045566 0.029394,0.045566 -0.00442,0 -0.021313,-0.016866 -0.037482,-0.03748 z M 8.9937683,4.8601324 c -0.026638,-0.033969 -0.025882,-0.034727 0.00808,-0.00808 0.020617,0.016168 0.037482,0.033033 0.037482,0.03748 0,0.017628 -0.017587,0.00628 -0.045569,-0.029394 z M 8.8866813,4.7316275 c -0.026638,-0.033969 -0.025882,-0.034727 0.00808,-0.00808 0.035676,0.027979 0.047021,0.045567 0.029394,0.045567 -0.00448,0 -0.021313,-0.016867 -0.037482,-0.037481 z M 8.5895701,3.9020559 8.5933831,3.1493576 c 0,0 0.41446,0.00224 0.8859956,0.00273 l 0.1427431,0.070299 c 0.161239,0.079408 0.2347104,0.1555597 0.3144569,0.3259253 0.052962,0.1131404 0.055153,0.1334566 0.055475,0.5140198 l 6.689e-4,0.3962229 -0.6608645,0.010709 -0.660865,0.010709 0.047095,0.042595 c 0.025902,0.023427 0.05618,0.05957 0.067284,0.080316 0.018028,0.033695 0.00867,0.03772 -0.087654,0.03772 l -0.1078427,-6e-7 z"
       id="path8164" />
     <path
       style="opacity:0.40;fill:#000000"
       d="M 0.9039176,14.205937 V 13.873966 H 1.2251783 1.546439 V 13.541995 13.210024 H 1.2251783 0.9039176 V 12.878053 12.546082 H 1.2251783 1.546439 V 12.214111 11.88214 H 1.2251783 0.9039176 V 9.9010234 7.9199068 l 6.5857844,-4.7e-6 -0.00562,1.6484491 -0.00562,1.6484498 -0.2406846,0.0061 -0.2406847,0.0061 -0.7473992,-0.895889 C 5.5302954,9.470882 5.500868,9.4387813 5.4643294,9.4764136 5.3760335,9.5673391 3.8594307,11.399725 3.8594307,11.415478 c 0,0.0095 0.2192646,0.0138 0.4872495,0.0095 0.2679847,-0.0043 0.3450889,-0.0041 0.1713403,3.35e-4 l -0.315909,0.0081 v 0.223768 0.223769 l 0.326619,0.0059 0.3266124,0.0059 0.00588,0.327442 0.00588,0.327442 0.1856695,-0.0062 0.1856695,-0.0062 0.072147,0.144335 c 0.039676,0.07939 0.1219111,0.199858 0.1827395,0.267719 0.060828,0.06786 0.089126,0.105023 0.062889,0.08259 l -0.04771,-0.0408 v 0.111882 0.111882 l 0.1338586,-0.0047 c 0.108766,-0.0038 0.1549977,0.006 0.2466116,0.05259 0.062012,0.03152 0.1632125,0.07089 0.2248838,0.0875 0.061672,0.01661 0.1000829,0.03083 0.085359,0.03161 -0.019788,0.0011 -0.026772,0.0657 -0.026772,0.247711 v 0.2463 H 6.504433 6.8364037 V 13.63835 13.402758 h 0.3319707 0.3319707 v 0.235592 0.235593 H 7.1683744 6.8364037 v 0.332529 0.332527 l -0.326619,-0.0059 -0.3266124,-0.0059 -0.00588,-0.326615 -0.00588,-0.326617 H 5.8399831 5.5085743 v 0.331971 0.331971 H 5.1873136 4.8660462 V 14.205911 13.87394 H 5.1873136 5.5085743 V 13.541969 13.209998 H 5.1878688 4.8671634 l -0.00588,0.326616 -0.00588,0.326617 -0.3260572,0.0059 -0.3260638,0.0059 -0.00588,0.326062 -0.00588,0.326062 -0.3266123,0.0059 -0.3266191,0.0059 V 14.206467 13.873938 H 3.2062929 2.8743222 v 0.332529 0.332529 l -0.3266191,-0.0059 -0.3266124,-0.0059 -0.00588,-0.326616 -0.00588,-0.326616 H 1.8779083 1.5464925 v 0.331971 0.33197 H 1.2252318 0.90397112 Z m 1.9704046,-0.663942 v -0.331971 h 0.3319707 0.3319708 v 0.331971 0.331971 H 3.8702344 4.2022051 V 13.541995 13.210024 H 4.5341758 4.8661466 V 12.878053 12.546082 H 4.5341758 4.2022051 V 12.214111 11.88214 H 3.8707963 3.5393809 l -0.00588,-0.326616 -0.00588,-0.326617 -0.3266124,-0.0059 -0.326619,-0.0059 v 0.332529 0.332528 H 2.542405 2.2104343 v -0.332528 -0.332529 l -0.3266191,0.0059 -0.3266127,0.0059 -0.00589,0.326617 -0.00589,0.326616 h 0.332533 0.3325259 v 0.331971 0.331971 H 1.8785171 1.546546 v 0.331971 0.331971 h 0.3319711 0.3319706 v 0.331971 0.331971 H 2.5424585 2.8744292 Z M 2.2103807,12.878053 V 12.546082 H 2.5423515 2.8743222 V 12.214111 11.88214 h 0.3319707 0.3319708 v 0.331971 0.331971 h 0.3319707 0.3319707 v 0.331971 0.331971 H 3.8702344 3.5382637 V 12.878053 12.546082 H 3.2062929 2.8743222 v 0.331971 0.331971 H 2.5423515 2.2103807 Z m 4.086722,0.510098 c 0.015459,-0.0062 0.033936,-0.0055 0.041053,0.0017 0.00712,0.0072 -0.00555,0.01218 -0.028109,0.01125 -0.024952,-0.0011 -0.030029,-0.0061 -0.012944,-0.01294 z m -0.00669,-0.68773 c -0.089969,-0.0307 -0.1081718,-0.04596 -0.1138646,-0.09544 l -0.00678,-0.0589 H 6.5031583 6.836554 V 12.214111 11.88214 H 6.5045868 6.1726162 v 0.330614 0.330614 l -0.069606,0.0067 c -0.053864,0.0052 -0.080609,-0.0062 -0.1182251,-0.05043 -0.089861,-0.105615 -0.1404139,-0.253592 -0.1506088,-0.440807 l -0.00961,-0.176695 h 0.1740229 0.1740297 v -0.224017 -0.224017 l -0.1766988,-0.0063 c -0.09718,-0.0034 0.122085,-0.0063 0.4872493,-0.0063 0.3651712,0 0.5940688,0.0029 0.5086696,0.0063 l -0.1552787,0.0063 v 0.223945 0.223946 h 0.331968 0.3319707 v 0.33197 0.331971 H 7.1685283 6.8365576 v 0.09638 0.09638 L 6.6170254,12.737802 C 6.4683895,12.737237 6.3629215,12.725169 6.290413,12.700425 Z M 4.8661466,11.657256 v -0.224883 h 0.149927 0.1499203 v 0.224883 0.224884 H 5.0160736 4.8661466 Z M 7.0694154,11.33064 c -0.026638,-0.03397 -0.025882,-0.03473 0.00808,-0.008 0.035676,0.02798 0.047021,0.04557 0.029394,0.04557 -0.00442,0 -0.021313,-0.01686 -0.037481,-0.03748 z"
       id="path7957" />
    <path
       style="opacity:0.60;fill:#000000"
       d="M 8.5964603,11.239882 V 7.9366736 l 6.5751677,-0.011914 v 3.3395885 z"
       id="path7986" />
    <path
       id="path7953"
       d="m 8.5974036,14.20737 v -0.321262 h 0.3212607 0.3212613 v 0.321262 0.321262 H 8.9186643 8.5974036 Z m 1.3278835,0 v -0.321262 h 0.3212599 0.321268 v 0.321262 0.321262 H 10.246547 9.9252871 Z m 1.3064699,0 v -0.321262 h 0.321259 0.321261 v 0.321262 0.321262 h -0.321261 -0.321259 z m 1.327883,0 v -0.321262 h 0.321261 0.32126 v 0.321262 0.321262 h -0.32126 -0.321261 z m 1.327881,0 v -0.321262 h 0.321262 0.321261 v 0.321262 0.321262 H 14.208783 13.887521 Z M 9.2613457,13.543428 V 13.222166 H 9.5826064 9.903867 v 0.321262 0.321262 H 9.5826064 9.2613457 Z m 1.3064693,0 V 13.222166 H 10.246547 9.9252871 v -0.331971 -0.331971 h 0.3212599 0.321268 v -0.321262 -0.321263 h 0.331971 0.331971 v 0.321263 0.321262 h 0.321259 0.321261 v 0.331971 0.331971 h -0.321261 -0.321259 v 0.321262 0.321262 h -0.331971 -0.331971 z m 0.663942,-0.653233 v -0.331971 h -0.331971 -0.331971 v 0.331971 0.331971 h 0.331971 0.331971 z m 0.66394,0.653233 v -0.321262 h 0.321261 0.321261 v 0.321262 0.321262 h -0.321261 -0.321261 z m 1.327884,0 v -0.321262 h 0.32126 0.32126 v 0.321262 0.321262 h -0.32126 -0.32126 z m 1.306463,0 v -0.321262 h -0.321262 -0.321261 v -0.331971 -0.331971 h 0.321261 0.321262 v -0.321262 -0.321263 h 0.33197 0.331971 v 0.321263 0.321262 h -0.331971 -0.33197 v 0.331971 0.331971 h 0.33197 0.331971 v 0.321262 0.321262 h -0.331971 -0.33197 z M 6.2942595,13.39259 C 5.7900855,13.326673 5.3523725,12.948266 5.2072084,12.452828 5.1745432,12.34134 5.1636191,12.219139 5.1548959,11.86751 L 5.1438647,11.423097 H 4.493075 3.8422853 L 4.6553911,10.44779 C 5.1026034,9.9113714 5.4726312,9.4704391 5.4776685,9.4679406 c 0.010757,-0.00533 1.6205121,1.9245764 1.6205121,1.9428044 0,0.0068 -0.2898464,0.01235 -0.6441068,0.01235 H 5.8099736 l 0.00693,0.433705 0.00694,0.433704 0.063103,0.113916 c 0.070461,0.127192 0.1614465,0.215506 0.296235,0.28753 0.089968,0.04807 0.095962,0.04835 1.1773672,0.05442 l 1.0869371,0.0061 v 0.331225 0.331224 l -1.0119803,-0.0027 c -0.5565885,-0.0015 -1.070148,-0.01033 -1.141245,-0.01962 z m 2.3031441,-0.502395 v -0.331971 h 0.3212607 0.3212613 v 0.331971 0.331971 H 8.9186643 8.5974036 Z m 3.9622364,0 v -0.331971 h 0.321261 0.32126 v 0.331971 0.331971 H 12.880901 12.55964 Z M 9.2613457,12.236962 v -0.321263 h 0.32126 0.3212604 v 0.321263 0.321262 h -0.3212604 -0.32126 z m 2.6343513,0 v -0.321263 h 0.321261 0.321261 v 0.321263 0.321262 h -0.321261 -0.321261 z m 1.327884,0 v -0.321263 h 0.32126 0.32126 v 0.321263 0.321262 h -0.32126 -0.32126 z M 8.5974036,11.573019 v -0.321261 h 0.3212607 0.3212613 v 0.321261 0.321263 H 8.9186643 8.5974036 Z m 1.3278835,0 v -0.321261 h 0.3212599 0.321268 v 0.321261 0.321263 H 10.246547 9.9252871 Z m 1.3064699,0 v -0.321261 h 0.321259 0.321261 v 0.321261 0.321263 h -0.321261 -0.321259 z m 1.327883,0 v -0.321261 h 0.321261 0.32126 v 0.321261 0.321263 h -0.32126 -0.321261 z m 1.327881,0 v -0.321261 h 0.321262 0.321261 v 0.321261 0.321263 H 14.208783 13.887521 Z M 1.5510548,7.6107863 V 7.2895241 h 0.321261 0.3212607 V 7.6107863 7.9320484 H 1.8723158 1.5510548 Z m 1.3064632,0 V 7.2895241 H 3.1894887 3.5214595 V 7.6107863 7.9320484 H 3.1894887 2.857518 Z m 1.3278828,0 V 7.2895241 H 4.5066616 4.827929 V 7.6107863 7.9320484 H 4.5066616 4.1854008 Z m 1.327883,0 V 7.2895241 H 5.8345511 6.1558118 V 7.6107863 7.9320484 H 5.8345511 5.5132838 Z m 1.3064695,0 V 7.2895241 H 7.1517241 7.4836948 V 7.6107863 7.9320484 H 7.1517241 6.8197533 Z M 0.88711336,6.9468443 V 6.6255822 H 1.208374 1.5296347 V 6.9468443 7.2681066 H 1.208374 0.88711336 Z m 1.32788324,0 V 6.6255822 H 2.5362573 2.857518 V 6.9468443 7.2681066 H 2.5362573 2.2149966 Z m 1.3064629,0 V 6.6255822 H 3.8427202 4.1639875 V 6.9468443 7.2681066 H 3.8427202 3.5214595 Z m 1.3278828,0 V 6.6255822 H 5.1706097 5.4918704 V 6.9468443 7.2681066 H 5.1706097 4.8493423 Z m 1.3278829,0 V 6.6255822 H 6.4984926 6.8197533 V 6.9468443 7.2681066 H 6.4984926 6.1772252 Z M 1.5510548,6.2829024 V 5.9616403 h 0.321261 0.3212607 V 6.2829024 6.6041646 H 1.8723158 1.5510548 Z m 1.3064632,0 V 5.9616403 H 3.1894887 3.5214595 V 6.2829024 6.6041646 H 3.1894887 2.857518 Z m 1.3278828,0 V 5.9616403 H 4.5066616 4.827929 V 6.2829024 6.6041646 H 4.5066616 4.1854008 Z m 1.327883,0 V 5.9616403 H 5.8345511 6.1558118 V 6.2829024 6.6041646 H 5.8345511 5.5132838 Z m 1.3064695,0 V 5.9616403 H 7.1517241 7.4836948 V 6.2829024 6.6041646 H 7.1517241 6.8197533 Z m 2.701349,-0.8313572 -0.8149327,-0.9784199 0.6540013,-0.00567 0.6539941,-0.00567 -0.007,-0.4226834 C 10.000719,3.6439497 9.9969663,3.6101507 9.9497911,3.5200476 9.8810359,3.388733 9.7644962,3.2706618 9.6361498,3.2022888 l -0.1070869,-0.057048 -1.0226846,-0.00614 -1.0226835,-0.00614 -0.001,0.7557538 c -6.689e-4,0.4156645 0,0.9027311 9.389e-4,1.0823701 l 0.00194,0.3266166 H 7.1526539 6.8197399 V 5.6189621 5.9402243 H 6.4984792 6.1772119 V 5.6189621 5.2976999 H 6.4984792 6.8197399 V 4.965729 4.633758 H 6.4877693 6.1557985 V 4.965729 5.2976999 H 5.8345378 5.5132704 V 4.965729 4.633758 H 5.1705963 4.8279156 V 4.965729 5.2976999 H 4.5066482 4.1853875 V 4.965729 4.633758 L 3.8480651,4.6337367 3.510736,4.6337151 3.517156,4.965717 3.523576,5.2977187 H 3.8437971 4.1640143 V 5.618981 5.9402432 H 3.8427469 3.5214862 V 5.618981 5.2977187 H 3.1895154 2.8575447 V 5.618981 5.9402432 H 2.536284 2.2150233 V 5.618981 5.2977187 h 0.3202105 0.3202171 l 0.00642,-0.3320017 0.00642,-0.3320019 -0.3373291,2.16e-5 -0.3373224,2.13e-5 V 4.965729 5.2976999 H 1.8723827 1.5511217 V 4.965729 4.633758 H 1.219151 0.88718025 V 2.9846118 1.3354658 H 4.1854677 7.4837617 V 1.9137378 2.49201 l 1.0226836,3.345e-4 c 1.1420528,3.344e-4 1.1793473,0.00405 1.4488236,0.143794 0.2151901,0.111587 0.4525441,0.3516883 0.5562191,0.5626664 0.127109,0.2586576 0.141518,0.3429972 0.141806,0.8299278 v 0.4337036 h 0.662904 0.662905 L 11.21641,5.3780335 c -0.419484,0.5035785 -0.789217,0.946277 -0.821629,0.9837743 l -0.05893,0.068178 z M 0.88711336,5.6189606 V 5.2976984 H 1.208374 1.5296347 V 5.6189606 5.9402227 H 1.208374 0.88711336 Z m 3.96222894,0 V 5.2976984 H 5.1706097 5.4918704 V 5.6189606 5.9402227 H 5.1706097 4.8493423 Z"
       style="opacity:1;fill:#000000" />
   </g>
</svg>
